{
  "en": {
    "translation": {
      "Debug": {
        "DebugStart": {
          "say": [
            "Starting test version."
          ]
        }
      },
      "Exit": {
        "General": {
          "tell": [
            "Thanks for using New Year New Me. See you next time!"
          ]
        }
      },
      "ReturningUserConfirmedResolution": {
        "ask": [
          "Congratulations on making a new years resolution to help others {fireworks} The resolution you chose when we last talked was to {currentResolution} Do you want to check-in on your resolution or find a new one? "
        ],
        "dialogflowSuggestions": [
          "Check in 🌞",
          "New one 🌟"
        ],
        "reprompt": [
          "Check in or find a new one? "
        ]
      },
      "FirstTimeUser": {
        "ask": [
          "Happy new year! {fireworks} New years resolutions often benefit us but this 2020 let's make a resolution to benefit others. Are you ready to make a resolution to make life better? "
        ],
        "dialogflowSuggestions": [
          "Yes 👍",
          "No 👎"
        ],
        "reprompt": [
          "Would you like a resolution?"
        ]
      },
      "Returning": {
        "NoResolution": {
          "ask": [
            "New Year, New You. {fireworks} This 2020 we're making resolutions to benefit others. \n Would you like a new years resolution to help make life better?"
          ],
          "dialogflowSuggestions": [
            "Yes 👍",
            "No 👎"
          ]
        },
        "ChangeResolution": {
          "ask": [
            "Just to confirm you would like to change your new years resolution?"
          ],
          "dialogflowSuggestions": [
            "Yes 👍",
            "No 👎"
          ]
        }
      },
      "NoResolutionChange": {
        "ask": [
          "That's ok, in that case would you like to check in on how you're going with your current resolution?"
        ],
        "dialogflowSuggestions": [
          "Yes 👍",
          "No 👎"
        ]
      },
      "NoResolution": {
        "ask": [
          "Are you sure you don't want to make a resolution to help make a difference in other people's lives? "
        ],
        "dialogflowSuggestions": [
          "Yes 👍",
          "No 👎"
        ],
        "reprompt": [
          "Do you want to make a difference? "
        ]
      },
      "NoResolutionExit": {
        "tell": [
          "Remember small actions can make a big difference, come back next year for a new years Resolution."
        ]
      },
      "YesResolution": {
        "say": [
          "Small actions can make a big difference, together we'll make a better difference this year. Let's find your resolution."
        ]
      },
      "Resolution": {
        "say": [
          "Great, I'll suggest a new years resolution for you, you can choose to save it or ask me to suggest another one. Here's my first suggestion."
        ],
        "Info": {
          "ask\n": [
            "So you don't want to find a new years resolution to make life better?"
          ],
          "reprompt\n": [
            "Are you sure you don't want a resolution?"
          ]
        },
        "Goodbye": {
          "Tell": "I resolve to do a better job next time, sorry I couldn't help you. Speak soon."
        },
        "Unhandled": {
          "tell": [
            "Sorry I seem to be having trouble understanding you right now, I resolve to do a better job next time. Speak soon."
          ]
        },
        "Error": {
          "say": [
            "Sorry there has been an error. My new years resolution is to function properly, happy new years see you soon."
          ]
        }
      },
      "ResolutionRefresh": {
        "say": [
          "No worries, finding the right resolution will help you stick to it, here's another one to try.",
          "Not a drama, you need to make sure you pick the right resolution to have the best chance of succeeding, here's another one.",
          "That's ok, here's another one that you might prefer."
        ]
      },
      "ResolutionStartAgain": {
        "say": [
          "Looks like I've given you all my resolution options so let's start again and hopefully you find the right fit this time!"
        ]
      },
      "NewResolutionReturn": {
        "say": [
          "No worries, I hope you succeeded with your resolution. Here's a new resolution for you"
        ]
      },
      "DeliverResolution": {
        "ask": [
          "Your resolution is {currentResolution} "
        ],
        "voice": {
          "ask": [
            "Your resolution is {currentResolution} "
          ]
        }
      },
      "ResolutionSave": {
        "say": [
          "Good choice, people like you make the world a better place. "
        ]
      },
      "ResolutionDetails": {
        "ask": [
          "The best way to make sure you stick to your resolution and make life better is by checking in, I can send you push notifications to remind you about your resolution. Can we set that up now?"
        ],
        "dialogflowSuggestions": [
          "Yes 👍",
          "No 👎"
        ]
      },
      "Notify": {
        "No": {
          "tell": [
            "Good on you for making a difference today, you can always check in on your resolution when you return to the experience. See you soon and good luck. ",
            "If you don't want to set that up now you can always just come back to the experience and track your progress. Have a great new year and good on you for making the world better. "
          ]
        },
        "Yes": {
          "tell": [
            "You're making a real difference today, and we'll check in with you Monthly to see how your resolution is going. In the mean time keep doing you, you're good at it. "
          ]
        },
        "Setup": {
          "tell": [
            "You've already set up notifications so we'll check in with you Monthly to see how your resolution is going. Best of luck and we'll talk to you soon."
          ]
        }
      },
      "ResolutionNotify": {
        "ask": [
          "Great, you can check in whenever you want, but we can send a reminder too, would you like a reminder in 1 week, 1 month or 1 year? "
        ]
      },
      "ResolutionCheckIn": {
        "Mobile": {
          "ask": [
            " Let's check in.  Have you been keeping on track with your new years resolution?"
          ]
        },
        "mobile": {
          "dialogflowSuggestions": [
            "Yes 👍",
            "No 👎"
          ]
        },
        "ask": [
          "Let's check in. On a scale from 1 - 5, where one means not at all, and five means everyday, how have you been tracking with your resolution?"
        ],
        "dialogflowSuggestions": [
          "1 ☹️",
          "2 🙁",
          "3 😐",
          "4 😊",
          "5 😁"
        ]
      },
      "PreviousNegative": {
        "ResolutionCheckIn": {
          "ask": [
            "Last time you checked in you weren't keeping up with your resolution that well. On a scale from 1 - 5, where one means not at all, and five means everyday, how have you been tracking with your resolution now?"
          ],
          "dialogflowSuggestions": [
            "1 ☹️",
            "2 🙁",
            "3 😐",
            "4 😊",
            "5 😁"
          ]
        }
      },
      "PreviousNeutral": {
        "ResolutionCheckIn": {
          "ask": [
            "Last time you checked in you were doing ok with keeping up with your resolution. On a scale from 1 - 5, where one means not at all, and five means everyday, how have you been tracking with your resolution now?"
          ],
          "dialogflowSuggestions": [
            "1 ☹️",
            "2 🙁",
            "3 😐",
            "4 😊",
            "5 😁"
          ]
        }
      },
      "PreviousPositive": {
        "ResolutionCheckIn": {
          "ask": [
            "Last time you checked in you were doing great with keeping up with your resolution, Nice work!  On a scale from 1 - 5, where one means not at all, and five means everyday, how have you been tracking with your resolution now?"
          ],
          "dialogflowSuggestions": [
            "1 ☹️",
            "2 🙁",
            "3 😐",
            "4 😊",
            "5 😁"
          ]
        }
      },
      "PositiveCheckIn": {
        "tell": [
          "Small actions make a big difference, congratulations for helping make life better and doing so well with your chosen resolution. Talk to you again at your next check in."
        ]
      },
      "NeutralCheckIn": {
        "tell": [
          "Sometimes making a big change is hard, but it's about keeping on track every day. {resolutionTip} check-in with us again soon. "
        ]
      },
      "NegativeCheckIn": {
        "tell": [
          "Don't worry, stay on track. {resolutionTip} I'm sure you'll do better next time we check in. "
        ]
      },
      "FirstTimeResolution1": {
        "ask": [
          "Let's save a life together. ❤️ Donate Blood. \nDid you know just one pint of donated blood can help save as many as three people's lives! Would you like this resolution or to try another one? "
        ],
        "dialogflowSuggestions": [
          "Yes 👍",
          "Another one ⏭️"
        ]
      },
      "FirstTimeResolution2": {
        "ask": [
          "Pamper a pet . Those who enjoy the company of non-human animals more than most people can resolve to put their passion for pets to good use, think about rescuing a pet this year and changing an animals life. Would you like this resolution or to try another one? "
        ],
        "dialogflowSuggestions": [
          "Yes 👍",
          "Another one ⏭️"
        ]
      },
      "FirstTimeResolution3": {
        "ask": [
          "Put a smile on someones face during the 2020 holiday's! 😃 \nConsider adding a charitable cause to the list of activities. Donate a toy, Donate food or why not donate time. \nA small collective effort can make a big impact. Would you like this resolution or to try another one? "
        ],
        "dialogflowSuggestions": [
          "Yes 👍",
          "Another one ⏭️"
        ]
      },
      "FirstTimeResolution4": {
        "ask": [
          "Are you tired of seeing the same old stuff on social media ? 🤔 Well how about you use it to share your passion. \nTry to dedicate one post per week to raising awareness of a cause you are passionate about. \nLets make a difference. Would you like this resolution or to try another one? "
        ],
        "dialogflowSuggestions": [
          "Yes 👍",
          "Another one ⏭️"
        ]
      },
      "FirstTimeResolution5": {
        "ask": [
          "Quick Fact - Recycling Paper Saves Water, Not Just Trees. \nIts so easy to put it in the right bin ! 🗑️ \nMake recycling your New Years resolution. Reduce. Reuse. Recycle. Would you like this resolution or try another one? "
        ],
        "dialogflowSuggestions": [
          "Yes 👍",
          "Another one ⏭️"
        ]
      },
      "FirstTimeResolution6": {
        "ask": [
          "Summer is coming and who doesnt want to be fit and healthy whilst trying to save the world at the same time? \nSpread the word whilst going for a walk with your friends at your local park or why not run a marathon for a cause? 🤷 \nMake this year for someone else! Would you like this resolution or to try another one? "
        ],
        "dialogflowSuggestions": [
          "Yes 👍",
          "Another one ⏭️"
        ]
      },
      "FirstTimeResolution7": {
        "ask": [
          "We all need help some way or another! ✋ \nThink about reaching out to someone senior in your life with a helping hand this New Year. Would you like this resolution or to try another one? "
        ],
        "dialogflowSuggestions": [
          "Yes 👍",
          "Another one ⏭️"
        ]
      },
      "FirstTimeResolution8": {
        "ask": [
          "Tea or coffee? \nGet to Know the Neighbours! After all... they're only next door.\nMake a friend. Share a story! 🧑‍🤝‍🧑 Would you like this resolution or to try another one? "
        ],
        "dialogflowSuggestions": [
          "Yes 👍",
          "Another one ⏭️"
        ]
      },
      "FirstTimeResolution9": {
        "ask": [
          "Cultivate Compassion. Too often, people develop blinders in life that lead them to deny or at least downplay the struggles others face. ❤️  A good resolution idea, is to spend at least five minutes daily cultivating compassion as a meditative practice. Would you like this resolution or to try another one? "
        ],
        "dialogflowSuggestions": [
          "Yes 👍",
          "Another one ⏭️"
        ]
      },
      "FirstTimeResolution10": {
        "ask": [
          "Gratitude. 🌞🌞 The benefits of practising gratitude are nearly endless. People who regularly practise gratitude by taking time to notice and reflect upon the things they're thankful for experience more positive emotions, feel more alive, sleep better, express more compassion and kindness, and even have stronger immune systems. Would you like this resolution or to try another one? "
        ],
        "dialogflowSuggestions": [
          "Yes 👍",
          "Another one ⏭️"
        ]
      },
      "Unverified": {
        "LinkAccount": {
          "tell": [
            "Unfortunately you'll need to verify yourself in the Google Assistant App before we can link your account, keep your resolution in mind and we'll see you next time to check in"
          ]
        },
        "LinkAccountFail": {
          "tell": [
            "We had some trouble linking your account, keep your resolution and come back next time to link your account and save it in the experience."
          ]
        }
      },
      "LinkAccount Directive\n": "To get the full experience, I need to link your New Year New Me account to your Google account is that ok?",
      "LinkAccountFailDirective": "Alright, no problem . Just so you know, that means you won't be able to use your account with New year New Me , you can always come back and sign in then.",
      "Noscreen": {
        "tell": [
          "I've saved your resolution and you can check in anytime but if you would like to setup push notifications you'll need to use a google assistant with a screen. Best wishes for the new year. "
        ]
      },
      "UnverifiedUser": {
        "tell": [
          "Unfortunately it looks like your account isn't verified with Google, You'll need to either turn on personal results in your google assistant app or turn on web and app activity in your google home app."
        ]
      },
      "Help": {
        "WithoutResolution": {
          "say": [
            "I can help you find a resolution that will help make the world a better place. Once you have chosen one you can set up push notification and check in with us at a later time.  "
          ]
        },
        "WithResolution": {
          "say": [
            "Now that you have a resolution you can check in or change your resolution for a new one. If I see you're not doing so well with your resolution when you check in i'll offer some helpful advice."
          ]
        }
      },
      "Repeat": {
        "General": {
          "ask": [
            "Okay, I said {lastResponse}",
            "Sure, {lastResponse}",
            "Sure, let me repeat that. {lastResponse}",
            "That was {lastResponse}"
          ]
        }
      },
      "Misheard": {
        "ask": [
          "Sorry i didn't quite get that, can you repeat what you said?",
          "Can you repeat that please?",
          "Apologies i didn't understand that can you repeat it please? "
        ]
      }
    }
  }
}