{
	"server": {
		"port": 3000,
    "hostSkill": false
  },
  "aws": {
    "region": "ap-southeast-2"
  },
  "dynamoDB": {
    "tables": {
      "users": "new-year-new-me-production-TableUsers-SYSPMTBZDR3E"
    }
  },
  "dashbot": {
    "suppressSending": false,
    "alexa": "key"
  },
  "s3": {
    "bucket": "nynm-bucket"
  }
}
