{
	"server": {
		"port": 3000,
    "hostSkill": true
  },
  "aws": {
    "region": "ap-southeast-2"
  },
  "dynamoDB": {
    "tables": {
      "users": "new-year-new-me-staging-TableUsers-LMVVQTSB3TRV"
    }
  },
  "dashbot": {
    "suppressSending": true,
    "alexa": "key"
  },
  "s3": {
    "bucket": "nynm-bucket"
  }
}
