{
  "name": "NewResolutionIntent",
  "auto": true,
  "contexts": [],
  "responses": [
    {
      "resetContexts": false,
      "action": "NewResolutionIntent",
      "affectedContexts": [],
      "parameters": [],
      "messages": [],
      "defaultResponsePlatforms": {},
      "speech": []
    }
  ],
  "priority": 500000,
  "webhookUsed": true,
  "webhookForSlotFilling": false,
  "fallbackIntent": false,
  "events": [],
  "id": "139d49a0-f056-5362-b7f0-1f4cb4ab1cb0"
}