{
  "name": "CheckInNeutralIntent",
  "auto": true,
  "contexts": [],
  "responses": [
    {
      "resetContexts": false,
      "action": "CheckInNeutralIntent",
      "affectedContexts": [],
      "parameters": [],
      "messages": [],
      "defaultResponsePlatforms": {},
      "speech": []
    }
  ],
  "priority": 500000,
  "webhookUsed": true,
  "webhookForSlotFilling": false,
  "fallbackIntent": false,
  "events": [],
  "id": "01f3cc5f-fa10-56c5-9da3-2395d3d35462"
}