{
  "name": "FinishPushNotificationsSetupIntent",
  "auto": true,
  "contexts": [],
  "responses": [
    {
      "resetContexts": false,
      "action": "FinishPushNotificationsSetupIntent",
      "affectedContexts": [],
      "parameters": [],
      "messages": [],
      "defaultResponsePlatforms": {},
      "speech": []
    }
  ],
  "priority": 500000,
  "webhookUsed": true,
  "webhookForSlotFilling": false,
  "fallbackIntent": false,
  "events": [
    {
      "name": "actions_intent_PERMISSION"
    }
  ],
  "id": "95a1fb35-291a-55b6-89e2-a9873ae291c8"
}