[
  {
    "data": [
      {
        "text": "give me a resolution",
        "userDefined": false,
        "id": "f282f33c-77f9-5210-95f9-76c3565633cf"
      }
    ],
    "isTemplate": false,
    "count": 0,
    "updated": 0
  },
  {
    "data": [
      {
        "text": "i want a resolution",
        "userDefined": false,
        "id": "14a11779-c12a-5e8f-89be-c75e740681d0"
      }
    ],
    "isTemplate": false,
    "count": 0,
    "updated": 0
  },
  {
    "data": [
      {
        "text": "give me one",
        "userDefined": false,
        "id": "8fa5c521-93cc-51f2-a6da-3a26c0f83b19"
      }
    ],
    "isTemplate": false,
    "count": 0,
    "updated": 0
  },
  {
    "data": [
      {
        "text": "i'll take a resolution",
        "userDefined": false,
        "id": "bb94081b-b05d-54dc-adc6-831c70cb330a"
      }
    ],
    "isTemplate": false,
    "count": 0,
    "updated": 0
  },
  {
    "data": [
      {
        "text": "a resolution sounds great",
        "userDefined": false,
        "id": "c2411bf7-92b2-548d-9b3f-44a11abd6b42"
      }
    ],
    "isTemplate": false,
    "count": 0,
    "updated": 0
  },
  {
    "data": [
      {
        "text": "give me 1",
        "userDefined": false,
        "id": "064c1c94-acf4-5aa4-91cb-4311ce561452"
      }
    ],
    "isTemplate": false,
    "count": 0,
    "updated": 0
  },
  {
    "data": [
      {
        "text": "yes i'll take one",
        "userDefined": false,
        "id": "eedad409-4e81-5016-9fc0-940354a76161"
      }
    ],
    "isTemplate": false,
    "count": 0,
    "updated": 0
  },
  {
    "data": [
      {
        "text": "yes i take",
        "userDefined": false,
        "id": "3f9beec7-a927-53d1-9362-e8472ebfa7cc"
      }
    ],
    "isTemplate": false,
    "count": 0,
    "updated": 0
  },
  {
    "data": [
      {
        "text": "i'll have one",
        "userDefined": false,
        "id": "4a5062a8-eca7-521a-a10a-9c3727d71f8b"
      }
    ],
    "isTemplate": false,
    "count": 0,
    "updated": 0
  }
]