{
  "name": "GiveMeAResolutionIntent",
  "auto": true,
  "contexts": [],
  "responses": [
    {
      "resetContexts": false,
      "action": "GiveMeAResolutionIntent",
      "affectedContexts": [],
      "parameters": [],
      "messages": [],
      "defaultResponsePlatforms": {},
      "speech": []
    }
  ],
  "priority": 500000,
  "webhookUsed": true,
  "webhookForSlotFilling": false,
  "fallbackIntent": false,
  "events": [],
  "id": "35e9ff84-bada-5c7f-adec-afbae1945aa4"
}